^C:\USERS\WEI\DESKTOP\OPTIMAL_MPP\DEV\PROJECTS\TEMP\APP.OBJ|C:\USERS\WEI\DESKTOP\OPTIMAL_MPP\DEV\PROJECTS\TEMP\BOOST_HELPER_FUNCTIONS.OBJ|C:\USERS\WEI\DESKTOP\OPTIMAL_MPP\DEV\PROJECTS\TEMP\BOOST_MAIN_WINDOW.OBJ|C:\USERS\WEI\DESKTOP\OPTIMAL_MPP\DEV\PROJECTS\TEMP\BOOST_ROADMAP.OBJ|C:\USERS\WEI\DESKTOP\OPTIMAL_MPP\DEV\PROJECTS\TEMP\GRAPHICSITEM_MOC.OBJ|C:\USERS\WEI\DESKTOP\OPTIMAL_MPP\DEV\PROJECTS\TEMP\GRAPHICSVIEWNAVIGATION.OBJ|C:\USERS\WEI\DESKTOP\OPTIMAL_MPP\DEV\PROJECTS\TEMP\GRAPHICSVIEWNAVIGATION_MOC.OBJ|C:\USERS\WEI\DESKTOP\OPTIMAL_MPP\DEV\PROJECTS\TEMP\MAIN_WINDOW_MOC.OBJ|C:\USERS\WEI\DESKTOP\OPTIMAL_MPP\DEV\PROJECTS\TEMP\VISILIBITY.OBJ
/ERRORREPORT:PROMPT /OUT:"..\..\..\Dev\Projects\temp\roadmap-generator\Release\roadmap-generator-vc10.exe" /NOLOGO /LIBPATH:C:\Dev\boost_1_61_0\stage\lib /LIBPATH:C:\gurobi605\win64\lib /LIBPATH:C:\Dev\CGAL43\lib /LIBPATH:C:\Dev\Qt\4.8.2\lib /LIBPATH:C:\Dev\CGAL43\auxiliary\gmp\lib /LIBPATH:C:\Dev\CGAL43\lib\Release /LIBPATH:"C:\Dev\boost_1_61_0\lib32-msvc-10.0" gurobi60.lib gurobi_c++mdd2010.lib "boost_system-vc100-mt-1_61.lib" "boost_thread-vc100-mt-1_61.lib" QtOpenGL4.lib "libgmp-10.lib" "libmpfr-4.lib" QtGui4.lib QtCore4.lib kernel32.lib user32.lib gdi32.lib winspool.lib comdlg32.lib advapi32.lib shell32.lib ole32.lib oleaut32.lib uuid.lib odbc32.lib odbccp32.lib kernel32.lib user32.lib gdi32.lib winspool.lib comdlg32.lib advapi32.lib shell32.lib ole32.lib oleaut32.lib uuid.lib odbc32.lib odbccp32.lib /MANIFEST /ManifestFile:"..\..\..\Dev\Projects\temp\roadmap-generator-vc10.exe.intermediate.manifest" /MANIFESTUAC:"level='asInvoker' uiAccess='false'" /DEBUG /PDB:"C:\Users\wei\Desktop\optimal_mpp\Dev\Projects\temp\roadmap-generator\Release\roadmap-generator-vc10.pdb" /OPT:REF /OPT:ICF /LTCG /TLBID:1 /DYNAMICBASE /NXCOMPAT /IMPLIB:"..\..\..\Dev\Projects\temp\roadmap-generator\Release\roadmap-generator-vc10.lib" /MACHINE:X86 ..\..\..\Dev\Projects\temp\app.obj
..\..\..\Dev\Projects\temp\Boost_helper_functions.obj
..\..\..\Dev\Projects\temp\Boost_main_window.obj
..\..\..\Dev\Projects\temp\Boost_roadmap.obj
..\..\..\Dev\Projects\temp\GraphicsItem_moc.obj
..\..\..\Dev\Projects\temp\GraphicsViewNavigation_moc.obj
..\..\..\Dev\Projects\temp\main_window_moc.obj
..\..\..\Dev\Projects\temp\visilibity.obj
..\..\..\Dev\Projects\temp\GraphicsViewNavigation.obj  /FORCE:MULTIPLE 
