^C:\USERS\WEI\DESKTOP\OPTIMAL_MPP\DEV\PROJECTS\TEMP\ROADMAP-GENERATOR\ROADMAP-GENERATOR-VC10.EXE.INTERMEDIATE.MANIFEST
C:\WINDOWS\REGISTRATION\R00000000000D.CLB
C:\WINDOWS\MICROSOFT.NET\FRAMEWORK\V2.0.50727\MSCORWKS.DLL
C:\WINDOWS\MICROSOFT.NET\FRAMEWORK\V4.0.30319\CLR.DLL
C:\PROGRAM FILES (X86)\MICROSOFT SDKS\WINDOWS\V7.0A\BIN\MT.EXE.CONFIG
C:\USERS\WEI\DESKTOP\OPTIMAL_MPP\DEV\PROJECTS\TEMP\ROADMAP-GENERATOR\DEBUG\ROADMAP-GENERATOR-VC10.EXE
